{
    "cards": [
     {
      "hidden": 0,
      "label": "Service Level Agreement",
      "links": "[\n    {\n        \"description\": \"Service Level.\",\n        \"label\": \"Service Level\",\n        \"name\": \"Service Level\",\n        \"type\": \"doctype\"\n    },\n    {\n        \"description\": \"Service Level Agreement.\",\n        \"label\": \"Service Level Agreement\",\n        \"name\": \"Service Level Agreement\",\n        \"type\": \"doctype\"\n    }\n]"
     },
     {
      "hidden": 0,
      "label": "Maintenance",
      "links": "[\n    {\n        \"label\": \"Maintenance Schedule\",\n        \"name\": \"Maintenance Schedule\",\n        \"type\": \"doctype\"\n    },\n    {\n        \"label\": \"Maintenance Visit\",\n        \"name\": \"Maintenance Visit\",\n        \"type\": \"doctype\"\n    }\n]"
     },
     {
      "hidden": 0,
      "label": "Issues",
      "links": "[\n    {\n        \"description\": \"Support queries from customers.\",\n        \"label\": \"Issue\",\n        \"name\": \"Issue\",\n        \"onboard\": 1,\n        \"type\": \"doctype\"\n    },\n    {\n        \"description\": \"Issue Type.\",\n        \"label\": \"Issue Type\",\n        \"name\": \"Issue Type\",\n        \"type\": \"doctype\"\n    },\n    {\n        \"description\": \"Issue Priority.\",\n        \"label\": \"Issue Priority\",\n        \"name\": \"Issue Priority\",\n        \"type\": \"doctype\"\n    }\n]"
     },
     {
      "hidden": 0,
      "label": "Warranty",
      "links": "[\n    {\n        \"description\": \"Warranty Claim against Serial No.\",\n        \"label\": \"Warranty Claim\",\n        \"name\": \"Warranty Claim\",\n        \"type\": \"doctype\"\n    },\n    {\n        \"description\": \"Single unit of an Item.\",\n        \"label\": \"Serial No\",\n        \"name\": \"Serial No\",\n        \"type\": \"doctype\"\n    }\n]"
     },
     {
      "hidden": 0,
      "label": "Settings",
      "links": "[\n    {\n        \"label\": \"Support Settings\",\n        \"name\": \"Support Settings\",\n        \"type\": \"doctype\"\n    }\n]"
     },
     {
      "hidden": 0,
      "label": "Reports",
      "links": "[\n    {\n        \"dependencies\": [\n            \"Issue\"\n        ],\n        \"doctype\": \"Issue\",\n        \"is_query_report\": true,\n        \"label\": \"Minutes to First Response for Issues\",\n        \"name\": \"Minutes to First Response for Issues\",\n        \"type\": \"report\"\n    }\n]"
     }
    ],
    "category": "Modules",
    "charts": [],
    "creation": "2020-03-02 15:48:23.224699",
    "developer_mode_only": 0,
    "disable_user_customization": 0,
    "docstatus": 0,
    "doctype": "Desk Page",
    "extends_another_page": 0,
    "icon": "fas fa-headset",
    "idx": 0,
    "is_standard": 1,
    "label": "Support",
    "modified": "2020-04-01 11:28:51.120583",
    "modified_by": "Administrator",
    "module": "Support",
    "name": "Support",
    "owner": "Administrator",
    "pin_to_bottom": 0,
    "pin_to_top": 0,
    "color": "#1abc9c",
    "shortcuts": [
     {
      "label": "Issue",
      "link_to": "Issue",
      "type": "DocType"
     },
     {
      "label": "Service Level",
      "link_to": "Service Level",
      "type": "DocType"
     },
     {
      "label": "Maintenance Visit",
      "link_to": "Maintenance Visit",
      "type": "DocType"
     }
    ]
   }