{
    "cards": [
     {
      "hidden": 0,
      "label": "Stock Transactions",
      "links": "[\n    {\n        \"dependencies\": [\n            \"Item\"\n        ],\n        \"label\": \"Stock Entry\",\n        \"name\": \"Stock Entry\",\n        \"onboard\": 1,\n        \"type\": \"doctype\"\n    },\n    {\n        \"dependencies\": [\n            \"Item\",\n            \"Customer\"\n        ],\n        \"label\": \"Delivery Note\",\n        \"name\": \"Delivery Note\",\n        \"onboard\": 1,\n        \"type\": \"doctype\"\n    },\n    {\n        \"dependencies\": [\n            \"Item\",\n            \"Supplier\"\n        ],\n        \"label\": \"Purchase Receipt\",\n        \"name\": \"Purchase Receipt\",\n        \"onboard\": 1,\n        \"type\": \"doctype\"\n    },\n    {\n        \"dependencies\": [\n            \"Item\"\n        ],\n        \"label\": \"Material Request\",\n        \"name\": \"Material Request\",\n        \"onboard\": 1,\n        \"type\": \"doctype\"\n    },\n    {\n        \"dependencies\": [\n            \"Item\"\n        ],\n        \"label\": \"Pick List\",\n        \"name\": \"Pick List\",\n        \"onboard\": 1,\n        \"type\": \"doctype\"\n    },\n    {\n        \"label\": \"Delivery Trip\",\n        \"name\": \"Delivery Trip\",\n        \"type\": \"doctype\"\n    }\n]"
     },
     {
      "hidden": 0,
      "label": "Stock Reports",
      "links": "[\n    {\n        \"dependencies\": [\n            \"Item\"\n        ],\n        \"doctype\": \"Stock Ledger Entry\",\n        \"is_query_report\": true,\n        \"label\": \"Stock Ledger\",\n        \"name\": \"Stock Ledger\",\n        \"onboard\": 1,\n        \"type\": \"report\"\n    },\n    {\n        \"dependencies\": [\n            \"Item\"\n        ],\n        \"doctype\": \"Stock Ledger Entry\",\n        \"is_query_report\": true,\n        \"label\": \"Stock Balance\",\n        \"name\": \"Stock Balance\",\n        \"onboard\": 1,\n        \"type\": \"report\"\n    },\n    {\n        \"dependencies\": [\n            \"Item\"\n        ],\n        \"doctype\": \"Item\",\n        \"is_query_report\": true,\n        \"label\": \"Stock Projected Qty\",\n        \"name\": \"Stock Projected Qty\",\n        \"onboard\": 1,\n        \"type\": \"report\"\n    },\n    {\n        \"dependencies\": [\n            \"Item\"\n        ],\n        \"label\": \"Stock Summary\",\n        \"name\": \"stock-balance\",\n        \"type\": \"page\"\n    },\n    {\n        \"dependencies\": [\n            \"Item\"\n        ],\n        \"doctype\": \"Item\",\n        \"is_query_report\": true,\n        \"label\": \"Stock Ageing\",\n        \"name\": \"Stock Ageing\",\n        \"type\": \"report\"\n    },\n    {\n        \"dependencies\": [\n            \"Item\"\n        ],\n        \"doctype\": \"Item\",\n        \"is_query_report\": true,\n        \"label\": \"Item Price Stock\",\n        \"name\": \"Item Price Stock\",\n        \"type\": \"report\"\n    }\n]"
     },
     {
      "hidden": 0,
      "label": "Settings",
      "links": "[\n    {\n        \"label\": \"Stock Settings\",\n        \"name\": \"Stock Settings\",\n        \"onboard\": 1,\n        \"type\": \"doctype\"\n    },\n    {\n        \"label\": \"Warehouse\",\n        \"name\": \"Warehouse\",\n        \"onboard\": 1,\n        \"type\": \"doctype\"\n    },\n    {\n        \"label\": \"Unit of Measure (UOM)\",\n        \"name\": \"UOM\",\n        \"onboard\": 1,\n        \"type\": \"doctype\"\n    },\n    {\n        \"label\": \"Brand\",\n        \"name\": \"Brand\",\n        \"onboard\": 1,\n        \"type\": \"doctype\"\n    },\n    {\n        \"label\": \"Item Attribute\",\n        \"name\": \"Item Attribute\",\n        \"type\": \"doctype\"\n    },\n    {\n        \"label\": \"Item Variant Settings\",\n        \"name\": \"Item Variant Settings\",\n        \"type\": \"doctype\"\n    }\n]"
     },
     {
      "hidden": 0,
      "label": "Items and Pricing",
      "links": "[\n    {\n        \"label\": \"Item\",\n        \"name\": \"Item\",\n        \"onboard\": 1,\n        \"type\": \"doctype\"\n    },\n    {\n        \"label\": \"Product Bundle\",\n        \"name\": \"Product Bundle\",\n        \"onboard\": 1,\n        \"type\": \"doctype\"\n    },\n    {\n        \"icon\": \"fa fa-sitemap\",\n        \"label\": \"Item Group\",\n        \"link\": \"Tree/Item Group\",\n        \"name\": \"Item Group\",\n        \"onboard\": 1,\n        \"type\": \"doctype\"\n    },\n    {\n        \"label\": \"Price List\",\n        \"name\": \"Price List\",\n        \"type\": \"doctype\"\n    },\n    {\n        \"label\": \"Item Price\",\n        \"name\": \"Item Price\",\n        \"type\": \"doctype\"\n    },\n    {\n        \"label\": \"Shipping Rule\",\n        \"name\": \"Shipping Rule\",\n        \"type\": \"doctype\"\n    },\n    {\n        \"label\": \"Pricing Rule\",\n        \"name\": \"Pricing Rule\",\n        \"type\": \"doctype\"\n    },\n    {\n        \"label\": \"Item Alternative\",\n        \"name\": \"Item Alternative\",\n        \"type\": \"doctype\"\n    },\n    {\n        \"label\": \"Item Manufacturer\",\n        \"name\": \"Item Manufacturer\",\n        \"type\": \"doctype\"\n    },\n    {\n        \"label\": \"Item Variant Settings\",\n        \"name\": \"Item Variant Settings\",\n        \"type\": \"doctype\"\n    }\n]"
     },
     {
      "hidden": 0,
      "label": "Serial No and Batch",
      "links": "[\n    {\n        \"dependencies\": [\n            \"Item\"\n        ],\n        \"label\": \"Serial No\",\n        \"name\": \"Serial No\",\n        \"onboard\": 1,\n        \"type\": \"doctype\"\n    },\n    {\n        \"dependencies\": [\n            \"Item\"\n        ],\n        \"label\": \"Batch\",\n        \"name\": \"Batch\",\n        \"onboard\": 1,\n        \"type\": \"doctype\"\n    },\n    {\n        \"dependencies\": [\n            \"Item\"\n        ],\n        \"label\": \"Installation Note\",\n        \"name\": \"Installation Note\",\n        \"type\": \"doctype\"\n    },\n    {\n        \"dependencies\": [\n            \"Serial No\"\n        ],\n        \"doctype\": \"Serial No\",\n        \"label\": \"Serial No Service Contract Expiry\",\n        \"name\": \"Serial No Service Contract Expiry\",\n        \"type\": \"report\"\n    },\n    {\n        \"dependencies\": [\n            \"Serial No\"\n        ],\n        \"doctype\": \"Serial No\",\n        \"label\": \"Serial No Status\",\n        \"name\": \"Serial No Status\",\n        \"type\": \"report\"\n    },\n    {\n        \"dependencies\": [\n            \"Serial No\"\n        ],\n        \"doctype\": \"Serial No\",\n        \"label\": \"Serial No Warranty Expiry\",\n        \"name\": \"Serial No Warranty Expiry\",\n        \"type\": \"report\"\n    }\n]"
     },
     {
      "hidden": 0,
      "label": "Tools",
      "links": "[\n    {\n        \"label\": \"Stock Reconciliation\",\n        \"name\": \"Stock Reconciliation\",\n        \"onboard\": 1,\n        \"type\": \"doctype\"\n    },\n    {\n        \"label\": \"Landed Cost Voucher\",\n        \"name\": \"Landed Cost Voucher\",\n        \"onboard\": 1,\n        \"type\": \"doctype\"\n    },\n    {\n        \"label\": \"Packing Slip\",\n        \"name\": \"Packing Slip\",\n        \"onboard\": 1,\n        \"type\": \"doctype\"\n    },\n    {\n        \"label\": \"Quality Inspection\",\n        \"name\": \"Quality Inspection\",\n        \"type\": \"doctype\"\n    },\n    {\n        \"label\": \"Quality Inspection Template\",\n        \"name\": \"Quality Inspection Template\",\n        \"type\": \"doctype\"\n    },\n    {\n        \"label\": \"Quick Stock Balance\",\n        \"name\": \"Quick Stock Balance\",\n        \"type\": \"doctype\"\n    }\n]"
     },
     {
      "hidden": 0,
      "label": "Key Reports",
      "links": "[\n    {\n        \"dependencies\": [\n            \"Item Price\"\n        ],\n        \"doctype\": \"Item Price\",\n        \"is_query_report\": false,\n        \"label\": \"Item-wise Price List Rate\",\n        \"name\": \"Item-wise Price List Rate\",\n        \"onboard\": 1,\n        \"type\": \"report\"\n    },\n    {\n        \"dependencies\": [\n            \"Stock Entry\"\n        ],\n        \"doctype\": \"Stock Entry\",\n        \"is_query_report\": true,\n        \"label\": \"Stock Analytics\",\n        \"name\": \"Stock Analytics\",\n        \"onboard\": 1,\n        \"type\": \"report\"\n    },\n    {\n        \"dependencies\": [\n            \"Delivery Note\"\n        ],\n        \"doctype\": \"Delivery Note\",\n        \"is_query_report\": true,\n        \"label\": \"Delivery Note Trends\",\n        \"name\": \"Delivery Note Trends\",\n        \"type\": \"report\"\n    },\n    {\n        \"dependencies\": [\n            \"Purchase Receipt\"\n        ],\n        \"doctype\": \"Purchase Receipt\",\n        \"is_query_report\": true,\n        \"label\": \"Purchase Receipt Trends\",\n        \"name\": \"Purchase Receipt Trends\",\n        \"type\": \"report\"\n    },\n    {\n        \"dependencies\": [\n            \"Delivery Note\"\n        ],\n        \"doctype\": \"Delivery Note\",\n        \"is_query_report\": true,\n        \"label\": \"Ordered Items To Be Delivered\",\n        \"name\": \"Ordered Items To Be Delivered\",\n        \"type\": \"report\"\n    },\n    {\n        \"dependencies\": [\n            \"Purchase Receipt\"\n        ],\n        \"doctype\": \"Purchase Receipt\",\n        \"is_query_report\": true,\n        \"label\": \"Purchase Order Items To Be Received\",\n        \"name\": \"Purchase Order Items To Be Received\",\n        \"type\": \"report\"\n    },\n    {\n        \"dependencies\": [\n            \"Bin\"\n        ],\n        \"doctype\": \"Bin\",\n        \"is_query_report\": true,\n        \"label\": \"Item Shortage Report\",\n        \"name\": \"Item Shortage Report\",\n        \"type\": \"report\"\n    },\n    {\n        \"dependencies\": [\n            \"Batch\"\n        ],\n        \"doctype\": \"Batch\",\n        \"is_query_report\": true,\n        \"label\": \"Batch-Wise Balance History\",\n        \"name\": \"Batch-Wise Balance History\",\n        \"type\": \"report\"\n    }\n]"
     },
     {
      "hidden": 0,
      "label": "Other Reports",
      "links": "[\n    {\n        \"dependencies\": [\n            \"Material Request\"\n        ],\n        \"doctype\": \"Material Request\",\n        \"is_query_report\": true,\n        \"label\": \"Requested Items To Be Transferred\",\n        \"name\": \"Requested Items To Be Transferred\",\n        \"type\": \"report\"\n    },\n    {\n        \"dependencies\": [\n            \"Stock Ledger Entry\"\n        ],\n        \"doctype\": \"Stock Ledger Entry\",\n        \"is_query_report\": true,\n        \"label\": \"Batch Item Expiry Status\",\n        \"name\": \"Batch Item Expiry Status\",\n        \"type\": \"report\"\n    },\n    {\n        \"dependencies\": [\n            \"Price List\"\n        ],\n        \"doctype\": \"Price List\",\n        \"is_query_report\": true,\n        \"label\": \"Item Prices\",\n        \"name\": \"Item Prices\",\n        \"type\": \"report\"\n    },\n    {\n        \"dependencies\": [\n            \"Item\"\n        ],\n        \"doctype\": \"Item\",\n        \"is_query_report\": true,\n        \"label\": \"Itemwise Recommended Reorder Level\",\n        \"name\": \"Itemwise Recommended Reorder Level\",\n        \"type\": \"report\"\n    },\n    {\n        \"dependencies\": [\n            \"Item\"\n        ],\n        \"doctype\": \"Item\",\n        \"is_query_report\": true,\n        \"label\": \"Item Variant Details\",\n        \"name\": \"Item Variant Details\",\n        \"type\": \"report\"\n    },\n    {\n        \"dependencies\": [\n            \"Purchase Order\"\n        ],\n        \"doctype\": \"Purchase Order\",\n        \"is_query_report\": true,\n        \"label\": \"Subcontracted Raw Materials To Be Transferred\",\n        \"name\": \"Subcontracted Raw Materials To Be Transferred\",\n        \"type\": \"report\"\n    },\n    {\n        \"dependencies\": [\n            \"Purchase Order\"\n        ],\n        \"doctype\": \"Purchase Order\",\n        \"is_query_report\": true,\n        \"label\": \"Subcontracted Item To Be Received\",\n        \"name\": \"Subcontracted Item To Be Received\",\n        \"type\": \"report\"\n    },\n    {\n        \"dependencies\": [\n            \"Stock Ledger Entry\"\n        ],\n        \"doctype\": \"Stock Ledger Entry\",\n        \"is_query_report\": true,\n        \"label\": \"Stock and Account Value Comparison\",\n        \"name\": \"Stock and Account Value Comparison\",\n        \"type\": \"report\"\n    }\n]"
     }
    ],
    "category": "Modules",
    "charts": [],
    "creation": "2020-03-02 15:43:10.096528",
    "developer_mode_only": 0,
    "disable_user_customization": 0,
    "docstatus": 0,
    "doctype": "Desk Page",
    "extends_another_page": 0,
    "idx": 0,
    "is_standard": 1,
    "label": "Stock",
    "modified": "2020-04-01 11:28:51.148421",
    "modified_by": "Administrator",
    "module": "Stock",
    "name": "Stock",
    "owner": "Administrator",
    "pin_to_bottom": 0,
    "pin_to_top": 0,
    "color": "#f39c12",
    "icon": "fas fa-warehouse",
    "shortcuts": [
     {
      "label": "Item",
      "link_to": "Item",
      "type": "DocType"
     },
     {
      "label": "Pricing Rule",
      "link_to": "Pricing Rule",
      "type": "DocType"
     },
     {
      "label": "Stock Entry",
      "link_to": "Stock Entry",
      "type": "DocType"
     },
     {
      "label": "Stock Ledger",
      "link_to": "Stock Ledger",
      "type": "Report"
     },
     {
      "label": "Stock Balance",
      "link_to": "Stock Balance",
      "type": "Report"
     }
    ]
   }